<svg enable-background="new 0 0 512.001 512.001" version="1.1" viewBox="0 0 512 512" xml:space="preserve" xmlns="http://www.w3.org/2000/svg">
  <rect x="242" y="31.279" width="55.569" height="40.964" fill="#565bdf" />
  <path d="m263.92 154.01c-7.042 0-13.6-4.463-15.938-11.513-2.919-8.803 1.851-18.307 10.654-21.227 31.74-10.525 48.806-53.92 48.969-54.356 3.26-8.684 12.942-13.081 21.625-9.822 8.684 3.259 13.081 12.941 9.822 21.625-0.898 2.391-22.525 58.742-69.845 74.433-1.753 0.584-3.535 0.86-5.287 0.86z" fill="#565bdf" />
  <path d="m323.59 107.95c10.061-15.106 15.046-28.107 15.467-29.229 3.259-8.684-1.138-18.366-9.822-21.625-8.683-3.259-18.365 1.138-21.625 9.822-0.122 0.324-9.584 24.379-27.467 41.032z" enable-background="new" opacity=".1" />
  <path d="m480.73 75.144-28.523-42.495c-4.371-6.513-11.7-10.42-19.544-10.42h-153.45v59.062h76.271v73.579h55.633v-19.532c0-13 10.538-23.538 23.538-23.538h26.532c18.834 1e-3 30.041-21.018 19.545-36.656z" fill="#878bff" />
  <g transform="translate(69.025)" opacity=".1">
    <path d="m411.71 75.144-28.523-42.494c-4.371-6.512-11.7-10.42-19.544-10.42h-21.324c7.844 0 15.173 3.908 19.544 10.42l28.523 42.494c10.495 15.638-0.711 36.656-19.544 36.656h21.324c18.833 1e-3 30.04-21.018 19.544-36.656z" />
  </g>
  <rect x="331.34" y="139.15" width="94.133" height="64.227" fill="#565bdf" />
  <rect x="388.15" y="139.15" width="37.316" height="64.227" enable-background="new" opacity=".1" />
  <path d="m496.82 327.38-14.023-12.262-42.647-134.15h-123.48l-42.647 134.15-14.023 12.262c-12.454 10.89-17.823 27.799-13.933 43.879l34.05 140.74h196.59l34.05-140.74c3.889-16.081-1.48-32.99-13.934-43.879z" fill="#81caef" />
  <path d="m443.51 327.38-14.023-12.262-42.647-134.14h53.309l42.647 134.14 14.023 12.262c12.454 10.889 17.823 27.799 13.933 43.879l-34.05 140.74h-53.309l34.05-140.74c3.89-16.081-1.479-32.99-13.933-43.879z" enable-background="new" opacity=".1" />
  <g transform="translate(69.025)" fill="#9cdeff">
    <path d="m108.24 59.757h-31.215c-4.416 0-7.996-3.58-7.996-7.996s3.58-7.996 7.996-7.996h31.215c4.416 0 7.996 3.58 7.996 7.996s-3.58 7.996-7.996 7.996z" />
    <path d="m129.56 38.433c-2.046 0-4.093-0.78-5.654-2.342l-22.441-22.441c-3.123-3.123-3.123-8.185 0-11.308s8.186-3.123 11.308 0l22.441 22.441c3.123 3.123 3.123 8.185 0 11.308-1.561 1.562-3.607 2.342-5.654 2.342z" />
    <path d="m107.12 103.52c-2.046 0-4.093-0.78-5.654-2.342-3.123-3.123-3.123-8.185 0-11.308l22.441-22.441c3.123-3.123 8.186-3.123 11.308 0 3.123 3.123 3.123 8.185 0 11.308l-22.441 22.441c-1.561 1.561-3.607 2.342-5.654 2.342z" />
  </g>
  <g transform="translate(69.025)" opacity=".1">
    <path d="m377.75 323.12h-136.73c-4.416 0-7.996-3.58-7.996-7.996s3.58-7.996 7.996-7.996h136.73c4.417 0 7.996 3.58 7.996 7.996s-3.579 7.996-7.995 7.996z" />
  </g>
  <g fill="#eece16" stroke-width=".68623">
    <path d="m224.11 439.86c-1.8528 12.901-8.2338 19.625-19.557 19.557 9.6759 1.3725 19.488 2.4714 19.557 19.559-0.20587-14.068 7.4809-19.284 19.559-19.559-11.597-0.48036-19.833-5.0085-19.559-19.557z" />
    <path d="m59.055 219.76c10.746 39.664 0.58998 67.319-32.473 81.318 29.824-8.0975 59.962-17.293 81.441 32.527-18.117-40.694-2.333-65.466 32.459-81.523-34.312 13.176-63.888 10.293-81.428-32.322z" />
    <path d="m124.39 359.77c-18.254 44.399-47.143 62.927-87.699 52.428 33.351 13.587 67.799 26.42 52.428 87.77 12.009-50.575 44.194-62.241 87.77-52.496-41.105-12.009-66.497-35.685-52.498-87.701z" />
    <path d="m198.49 296.33c7.823 18.391-0.34252 28.342-14.891 34.93 15.577-5.833 27.999-3.0886 34.93 14.891-8.7151-21.822 3.2933-28.273 14.891-34.93-14.411 5.833-25.94 0.6182-34.93-14.891z" />
    <path d="m278.67 374.11c-8.9896 14.823-20.244 19.763-34.105 13.793 11.186 6.6564 22.645 13.107 13.793 34.037 7.0682-17.293 19.146-19.695 34.105-13.725-13.93-6.6564-21.685-16.401-13.793-34.105z" />
    <path d="m274.02 186.52c-6.0388 42.272-26.97 64.507-64.232 64.301 31.704 4.4605 64.232 8.0279 64.232 64.299-0.54898-46.183 24.634-63.269 64.367-64.299-38.086-1.5097-65.122-16.402-64.367-64.301z" />
    <path d="m170.31 129.26c-10.842 36.851-32.775 32.94-54.453 29.783 24.464 6.9996 33.866 25.596 29.734 54.486 8.6877-31.567 29.249-36.095 54.502-29.781-25.802-8.3034-39.047-24.294-29.783-54.488z" />
    <path d="m217.45 112.14c-1.8528 12.901-8.2358 19.625-19.559 19.557 9.6759 1.3725 19.49 2.4714 19.559 19.572-0.20587-14.068 7.479-19.298 19.557-19.572-11.597-0.48036-19.831-5.0085-19.557-19.557z" />
    <path d="m49.046 10.561c-6.2447 9.7788-14.275 14.61-26.695 7.0547 10.225 8.0907 12.764 16.991 7 26.742 6.1075-7.6721 12.01-15.597 26.764-7.0469-12.215-6.9035-12.901-16.175-7.0684-26.75z" />
    <path d="m56.682 75c-4.186 28.89-18.39 44.055-43.85 43.918 21.685 3.088 43.781 5.4898 43.85 43.967-0.41174-31.635 16.814-43.281 43.988-43.967-26.077-1.0294-44.537-11.185-43.988-43.918z" />
  </g>
</svg>
